simulation/modelsim/mydump.vcd
$date
	Wed Apr 12 17:10:53 2023
$end
$version
	ModelSim Version 10.5b
$end
$timescale
	1ps
$end

$scope module top_tb $end
$var reg 1 ! clk $end
$var reg 1 " rst_n $end

$scope module top_inst $end
$var wire 1 # clk $end
$var wire 1 $ rst_n $end
$var wire 1 % gnd $end
$var wire 1 & vcc $end
$var wire 1 ' unknown $end
$var tri1 1 ( devclrn $end
$var tri1 1 ) devpor $end
$var tri1 1 * devoe $end
$var wire 1 + clk~input_o $end
$var wire 1 , rst_n~input_o $end
$var wire 1 - ~QUARTUS_CREATED_GND~I_combout $end

$scope module clk~input $end
$var parameter 40 . differential_mode $end
$var parameter 40 / bus_hold $end
$var parameter 8 0 simulate_z_as $end
$var parameter 128 1 lpm_type $end
$var wire 1 # i $end
$var wire 1 % ibar $end
$var wire 1 % dynamicterminationcontrol $end
$var wire 1 + o $end
$var reg 1 2 out_tmp $end
$var reg 1 3 o_tmp $end
$var wire 1 4 out_val $end
$var reg 1 5 prev_value $end
$upscope $end

$scope module rst_n~input $end
$var parameter 40 6 differential_mode $end
$var parameter 40 7 bus_hold $end
$var parameter 8 8 simulate_z_as $end
$var parameter 128 9 lpm_type $end
$var wire 1 $ i $end
$var wire 1 % ibar $end
$var wire 1 % dynamicterminationcontrol $end
$var wire 1 , o $end
$var reg 1 : out_tmp $end
$var reg 1 ; o_tmp $end
$var wire 1 < out_val $end
$var reg 1 = prev_value $end
$upscope $end

$scope module ~QUARTUS_CREATED_GND~I $end
$var parameter 64 > lut_mask $end
$var parameter 24 ? shared_arith $end
$var parameter 24 @ extended_lut $end
$var parameter 24 A dont_touch $end
$var parameter 152 B lpm_type $end
$var wire 1 % dataa $end
$var wire 1 % datab $end
$var wire 1 % datac $end
$var wire 1 % datad $end
$var wire 1 % datae $end
$var wire 1 % dataf $end
$var wire 1 % datag $end
$var wire 1 % cin $end
$var wire 1 % sharein $end
$var wire 1 - combout $end
$var wire 1 C sumout $end
$var wire 1 D cout $end
$var wire 1 E shareout $end
$var wire 1 F f0_mask [15] $end
$var wire 1 G f0_mask [14] $end
$var wire 1 H f0_mask [13] $end
$var wire 1 I f0_mask [12] $end
$var wire 1 J f0_mask [11] $end
$var wire 1 K f0_mask [10] $end
$var wire 1 L f0_mask [9] $end
$var wire 1 M f0_mask [8] $end
$var wire 1 N f0_mask [7] $end
$var wire 1 O f0_mask [6] $end
$var wire 1 P f0_mask [5] $end
$var wire 1 Q f0_mask [4] $end
$var wire 1 R f0_mask [3] $end
$var wire 1 S f0_mask [2] $end
$var wire 1 T f0_mask [1] $end
$var wire 1 U f0_mask [0] $end
$var wire 1 V f1_mask [15] $end
$var wire 1 W f1_mask [14] $end
$var wire 1 X f1_mask [13] $end
$var wire 1 Y f1_mask [12] $end
$var wire 1 Z f1_mask [11] $end
$var wire 1 [ f1_mask [10] $end
$var wire 1 \ f1_mask [9] $end
$var wire 1 ] f1_mask [8] $end
$var wire 1 ^ f1_mask [7] $end
$var wire 1 _ f1_mask [6] $end
$var wire 1 ` f1_mask [5] $end
$var wire 1 a f1_mask [4] $end
$var wire 1 b f1_mask [3] $end
$var wire 1 c f1_mask [2] $end
$var wire 1 d f1_mask [1] $end
$var wire 1 e f1_mask [0] $end
$var wire 1 f f2_mask [15] $end
$var wire 1 g f2_mask [14] $end
$var wire 1 h f2_mask [13] $end
$var wire 1 i f2_mask [12] $end
$var wire 1 j f2_mask [11] $end
$var wire 1 k f2_mask [10] $end
$var wire 1 l f2_mask [9] $end
$var wire 1 m f2_mask [8] $end
$var wire 1 n f2_mask [7] $end
$var wire 1 o f2_mask [6] $end
$var wire 1 p f2_mask [5] $end
$var wire 1 q f2_mask [4] $end
$var wire 1 r f2_mask [3] $end
$var wire 1 s f2_mask [2] $end
$var wire 1 t f2_mask [1] $end
$var wire 1 u f2_mask [0] $end
$var wire 1 v f3_mask [15] $end
$var wire 1 w f3_mask [14] $end
$var wire 1 x f3_mask [13] $end
$var wire 1 y f3_mask [12] $end
$var wire 1 z f3_mask [11] $end
$var wire 1 { f3_mask [10] $end
$var wire 1 | f3_mask [9] $end
$var wire 1 } f3_mask [8] $end
$var wire 1 ~ f3_mask [7] $end
$var wire 1 !! f3_mask [6] $end
$var wire 1 "! f3_mask [5] $end
$var wire 1 #! f3_mask [4] $end
$var wire 1 $! f3_mask [3] $end
$var wire 1 %! f3_mask [2] $end
$var wire 1 &! f3_mask [1] $end
$var wire 1 '! f3_mask [0] $end
$var reg 1 (! f0_out $end
$var reg 1 )! f1_out $end
$var reg 1 *! f2_out $end
$var reg 1 +! f3_out $end
$var reg 1 ,! g0_out $end
$var reg 1 -! g1_out $end
$var reg 1 .! f2_input3 $end
$var reg 1 /! f2_f $end
$var reg 1 0! adder_input2 $end
$var reg 1 1! combout_tmp $end
$var reg 1 2! sumout_tmp $end
$var reg 1 3! cout_tmp $end
$var reg 1 4! ishared_arith $end
$var reg 1 5! iextended_lut $end
$var wire 1 6! dataa_in $end
$var wire 1 7! datab_in $end
$var wire 1 8! datac_in $end
$var wire 1 9! datad_in $end
$var wire 1 :! datae_in $end
$var wire 1 ;! dataf_in $end
$var wire 1 <! datag_in $end
$var wire 1 =! cin_in $end
$var wire 1 >! sharein_in $end

$scope function lut4 $end
$var reg 1 ?! lut4 $end
$var reg 16 @! mask [15:0] $end
$var reg 1 A! dataa $end
$var reg 1 B! datab $end
$var reg 1 C! datac $end
$var reg 1 D! datad $end
$upscope $end

$scope function lut5 $end
$var reg 1 E! lut5 $end
$var reg 32 F! mask [31:0] $end
$var reg 1 G! dataa $end
$var reg 1 H! datab $end
$var reg 1 I! datac $end
$var reg 1 J! datad $end
$var reg 1 K! datae $end
$var reg 1 L! e0_lut $end
$var reg 1 M! e1_lut $end
$var reg 16 N! e0_mask [15:0] $end
$var reg 16 O! e1_mask [31:16] $end
$upscope $end

$scope function lut6 $end
$var reg 1 P! lut6 $end
$var reg 64 Q! mask [63:0] $end
$var reg 1 R! dataa $end
$var reg 1 S! datab $end
$var reg 1 T! datac $end
$var reg 1 U! datad $end
$var reg 1 V! datae $end
$var reg 1 W! dataf $end
$var reg 1 X! f0_lut $end
$var reg 1 Y! f1_lut $end
$var reg 32 Z! f0_mask [31:0] $end
$var reg 32 [! f1_mask [63:32] $end
$upscope $end
$upscope $end
$upscope $end
$upscope $end
$enddefinitions $end
#0
$dumpvars
0!
1"
02
03
05
1:
1;
1=
0(!
0)!
0*!
0+!
0,!
0-!
0.!
0/!
10!
01!
12!
03!
04!
05!
0?!
b0 @!
0A!
0B!
0C!
0D!
xE!
bx F!
xG!
xH!
xI!
xJ!
xK!
xL!
xM!
bx N!
bx O!
0P!
b0 Q!
0R!
0S!
0T!
0U!
0V!
0W!
xX!
xY!
b0 Z!
b0 [!
b0 >
b110011001100001011011000111001101100101 .
b110011001100001011011000111001101100101 /
b1111010 0
b1100011011110010110001101101100011011110110111001100101011101100101111101101001011011110101111101101001011000100111010101100110 1
b110011001100001011011000111001101100101 6
b110011001100001011011000111001101100101 7
b1111010 8
b1100011011110010110001101101100011011110110111001100101011101100101111101101001011011110101111101101001011000100111010101100110 9
b11011110110011001100110 ?
b11011110110011001100110 @
b11011110110011001100110 A
b1100011011110010110001101101100011011110110111001100101011101100101111101101100011000110110010101101100011011000101111101100011011011110110110101100010 B
0%
1&
x'
1(
1)
1*
0+
1,
0-
z4
z<
0U
0T
0S
0R
0Q
0P
0O
0N
0M
0L
0K
0J
0I
0H
0G
0F
0e
0d
0c
0b
0a
0`
0_
0^
0]
0\
0[
0Z
0Y
0X
0W
0V
0u
0t
0s
0r
0q
0p
0o
0n
0m
0l
0k
0j
0i
0h
0g
0f
0'!
0&!
0%!
0$!
0#!
0"!
0!!
0~
0}
0|
0{
0z
0y
0x
0w
0v
06!
07!
08!
09!
0:!
0;!
0<!
0=!
0>!
1$
0#
1C
0D
0E
$end
#50000
1!
1#
13
15
12
1+
#100000
0!
0#
03
05
02
0+
#150000
1!
1#
13
15
12
1+
#200000
0!
0#
03
05
02
0+
#250000
1!
1#
13
15
12
1+
#300000
0!
0#
03
05
02
0+
#350000
1!
1#
13
15
12
1+
#400000
0!
0#
03
05
02
0+
#450000
1!
1#
13
15
12
1+
#500000
0!
0#
03
05
02
0+
#550000
1!
1#
13
15
12
1+
#600000
0!
0#
03
05
02
0+
#650000
1!
1#
13
15
12
1+
#700000
0!
0#
03
05
02
0+
#750000
1!
1#
13
15
12
1+
#800000
0!
0#
03
05
02
0+
#850000
1!
1#
13
15
12
1+
#900000
0!
0#
03
05
02
0+
#950000
1!
1#
13
15
12
1+
#1000000
0!
0#
03
05
02
0+
#1050000
1!
1#
13
15
12
1+
#1100000
0!
0#
03
05
02
0+
#1150000
1!
1#
13
15
12
1+
#1200000
0!
0#
03
05
02
0+
#1250000
1!
1#
13
15
12
1+
#1300000
0!
0#
03
05
02
0+
#1350000
1!
1#
13
15
12
1+
#1400000
0!
0#
03
05
02
0+
#1450000
1!
1#
13
15
12
1+
#1500000
0!
0#
03
05
02
0+
#1550000
1!
1#
13
15
12
1+
#1600000
0!
0#
03
05
02
0+
#1650000
1!
1#
13
15
12
1+
#1700000
0!
0#
03
05
02
0+
#1750000
1!
1#
13
15
12
1+
#1800000
0!
0#
03
05
02
0+
#1850000
1!
1#
13
15
12
1+
#1900000
0!
0#
03
05
02
0+
#1950000
1!
1#
13
15
12
1+
#2000000
0!
0#
03
05
02
0+
#2050000
1!
1#
13
15
12
1+
#2100000
0!
0#
03
05
02
0+
#2150000
1!
1#
13
15
12
1+
#2200000
0!
0#
03
05
02
0+
#2250000
1!
1#
13
15
12
1+
#2300000
0!
0#
03
05
02
0+
#2350000
1!
1#
13
15
12
1+
#2400000
0!
0#
03
05
02
0+
#2450000
1!
1#
13
15
12
1+
#2500000
0!
0#
03
05
02
0+
#2550000
1!
1#
13
15
12
1+
#2600000
0!
0#
03
05
02
0+
#2650000
1!
1#
13
15
12
1+
#2700000
0!
0#
03
05
02
0+
#2750000
1!
1#
13
15
12
1+
#2800000
0!
0#
03
05
02
0+
#2850000
1!
1#
13
15
12
1+
#2900000
0!
0#
03
05
02
0+
#2950000
1!
1#
13
15
12
1+
#3000000
0!
0#
03
05
02
0+
#3050000
1!
1#
13
15
12
1+
#3100000
0!
0#
03
05
02
0+
#3150000
1!
1#
13
15
12
1+
#3200000
0!
0#
03
05
02
0+
#3250000
1!
1#
13
15
12
1+
#3300000
0!
0#
03
05
02
0+
#3350000
1!
1#
13
15
12
1+
#3400000
0!
0#
03
05
02
0+
#3450000
1!
1#
13
15
12
1+
#3500000
0!
0#
03
05
02
0+
#3550000
1!
1#
13
15
12
1+
#3600000
0!
0#
03
05
02
0+
#3650000
1!
1#
13
15
12
1+
#3700000
0!
0#
03
05
02
0+
#3750000
1!
1#
13
15
12
1+
#3800000
0!
0#
03
05
02
0+
#3850000
1!
1#
13
15
12
1+
#3900000
0!
0#
03
05
02
0+
#3950000
1!
1#
13
15
12
1+
#4000000
0!
0#
03
05
02
0+
#4050000
1!
1#
13
15
12
1+
#4100000
0!
0#
03
05
02
0+
#4150000
1!
1#
13
15
12
1+
#4200000
0!
0#
03
05
02
0+
#4250000
1!
1#
13
15
12
1+
#4300000
0!
0#
03
05
02
0+
#4350000
1!
1#
13
15
12
1+
#4400000
0!
0#
03
05
02
0+
#4450000
1!
1#
13
15
12
1+
#4500000
0!
0#
03
05
02
0+
#4550000
1!
1#
13
15
12
1+
#4600000
0!
0#
03
05
02
0+
#4650000
1!
1#
13
15
12
1+
#4700000
0!
0#
03
05
02
0+
#4750000
1!
1#
13
15
12
1+
#4800000
0!
0#
03
05
02
0+
#4850000
1!
1#
13
15
12
1+
#4900000
0!
0#
03
05
02
0+
#4950000
1!
1#
13
15
12
1+
#5000000
0!
0#
03
05
02
0+
#5050000
1!
1#
13
15
12
1+
#5100000
0!
0#
03
05
02
0+
#5150000
1!
1#
13
15
12
1+
#5200000
0!
0#
03
05
02
0+
#5250000
1!
1#
13
15
12
1+
#5300000
0!
0#
03
05
02
0+
#5350000
1!
1#
13
15
12
1+
#5400000
0!
0#
03
05
02
0+
#5450000
1!
1#
13
15
12
1+
#5500000
0!
0#
03
05
02
0+
#5550000
1!
1#
13
15
12
1+
#5600000
0!
0#
03
05
02
0+
#5650000
1!
1#
13
15
12
1+
#5700000
0!
0#
03
05
02
0+
#5750000
1!
1#
13
15
12
1+
#5800000
0!
0#
03
05
02
0+
#5850000
1!
1#
13
15
12
1+
#5900000
0!
0#
03
05
02
0+
#5950000
1!
1#
13
15
12
1+
#6000000
0!
0#
03
05
02
0+
#6050000
1!
1#
13
15
12
1+
#6100000
0!
0#
03
05
02
0+
#6150000
1!
1#
13
15
12
1+
#6200000
0!
0#
03
05
02
0+
#6250000
1!
1#
13
15
12
1+
#6300000
0!
0#
03
05
02
0+
#6350000
1!
1#
13
15
12
1+
#6400000
0!
0#
03
05
02
0+
#6450000
1!
1#
13
15
12
1+
#6500000
0!
0#
03
05
02
0+
#6550000
1!
1#
13
15
12
1+
#6600000
0!
0#
03
05
02
0+
#6650000
1!
1#
13
15
12
1+
#6700000
0!
0#
03
05
02
0+
#6750000
1!
1#
13
15
12
1+
#6800000
0!
0#
03
05
02
0+
#6850000
1!
1#
13
15
12
1+
#6900000
0!
0#
03
05
02
0+
#6950000
1!
1#
13
15
12
1+
#7000000
0!
0#
03
05
02
0+
#7050000
1!
1#
13
15
12
1+
#7100000
0!
0#
03
05
02
0+
#7150000
1!
1#
13
15
12
1+
#7200000
0!
0#
03
05
02
0+
#7250000
1!
1#
13
15
12
1+
#7300000
0!
0#
03
05
02
0+
#7350000
1!
1#
13
15
12
1+
#7400000
0!
0#
03
05
02
0+
#7450000
1!
1#
13
15
12
1+
#7500000
0!
0#
03
05
02
0+
#7550000
1!
1#
13
15
12
1+
#7600000
0!
0#
03
05
02
0+
#7650000
1!
1#
13
15
12
1+
#7700000
0!
0#
03
05
02
0+
#7750000
1!
1#
13
15
12
1+
#7800000
0!
0#
03
05
02
0+
#7850000
1!
1#
13
15
12
1+
#7900000
0!
0#
03
05
02
0+
#7950000
1!
1#
13
15
12
1+
#8000000
0!
0#
03
05
02
0+
#8050000
1!
1#
13
15
12
1+
#8100000
0!
0#
03
05
02
0+
#8150000
1!
1#
13
15
12
1+
#8200000
0!
0#
03
05
02
0+
#8250000
1!
1#
13
15
12
1+
#8300000
0!
0#
03
05
02
0+
#8350000
1!
1#
13
15
12
1+
#8400000
0!
0#
03
05
02
0+
#8450000
1!
1#
13
15
12
1+
#8500000
0!
0#
03
05
02
0+
#8550000
1!
1#
13
15
12
1+
#8600000
0!
0#
03
05
02
0+
#8650000
1!
1#
13
15
12
1+
#8700000
0!
0#
03
05
02
0+
#8750000
1!
1#
13
15
12
1+
#8800000
0!
0#
03
05
02
0+
#8850000
1!
1#
13
15
12
1+
#8900000
0!
0#
03
05
02
0+
#8950000
1!
1#
13
15
12
1+
#9000000
0!
0#
03
05
02
0+
#9050000
1!
1#
13
15
12
1+
#9100000
0!
0#
03
05
02
0+
#9150000
1!
1#
13
15
12
1+
#9200000
0!
0#
03
05
02
0+
#9250000
1!
1#
13
15
12
1+
#9300000
0!
0#
03
05
02
0+
#9350000
1!
1#
13
15
12
1+
#9400000
0!
0#
03
05
02
0+
#9450000
1!
1#
13
15
12
1+
#9500000
0!
0#
03
05
02
0+
#9550000
1!
1#
13
15
12
1+
#9600000
0!
0#
03
05
02
0+
#9650000
1!
1#
13
15
12
1+
#9700000
0!
0#
03
05
02
0+
#9750000
1!
1#
13
15
12
1+
#9800000
0!
0#
03
05
02
0+
#9850000
1!
1#
13
15
12
1+
#9900000
0!
0#
03
05
02
0+
#9950000
1!
1#
13
15
12
1+
